First Exploration in Capstone Project
…
bigram_count[1:25,]

## # A tibble: 25 x 2
##      bigram      n
##       <chr>  <int>
##  1   of the 129006
##  2   in the 121885
##  3   to the  64027
##  4  for the  60320
##  5   on the  59198
##  6    to be  48784
##  7   at the  43077
##  8  and the  37699
##  9     in a  35969
## 10 with the  31838
## # ... with 15 more rows
…
trigram_count[1:25,]

## # A tibble: 25 x 2
##           trigram     n
##             <chr> <int>
##  1     one of the 10273
##  2       a lot of  8942
##  3 thanks for the  7148
##  4        to be a  5415
##  5    going to be  5183
##  6     the end of  4548
##  7     out of the  4518
##  8      i want to  4499
##  9       it was a  4270
## 10     as well as  4217
## # ... with 15 more rows
…
